module app

require (
	github.com/go-sql-driver/mysql v1.4.1
	github.com/golang-migrate/migrate v3.5.4+incompatible
	github.com/gorilla/context v1.1.1 // indirect
	github.com/gorilla/mux v1.6.2
	github.com/joonix/log v0.0.0-20180502111528-d2d3f2f4a806 // indirect
	github.com/mattn/go-colorable v0.0.9 // indirect
	github.com/mattn/go-isatty v0.0.4 // indirect
	github.com/mgutz/ansi v0.0.0-20170206155736-9520e82c474b // indirect
	github.com/sirupsen/logrus v1.2.0
	github.com/spf13/viper v1.2.1
	github.com/x-cray/logrus-prefixed-formatter v0.5.2 // indirect
	golang.org/x/crypto v0.0.0-20180904163835-0709b304e793
	google.golang.org/appengine v1.3.0 // indirect
)
